<svg xmlns="http://www.w3.org/2000/svg" width="1262" height="153.8" viewBox="0 0 1262 153.8">
  <path id="Caminho_1490" data-name="Caminho 1490" d="M84,156.2c27.4,0,51.6-12.8,65.2-31.4l-20.4-18.6c-11.4,14.4-25.8,21.6-43,21.6-13.4,0-24.6-4.4-33.6-13.4S38.8,94.2,38.8,80.6c0-14,4.6-25.6,13.6-34.6Q65.9,32.2,86,32.2c16.6,0,30.6,7.2,42.2,21.4L148,34.2C135,15.8,111,3.6,84.4,3.6c-21.2,0-39.2,7.2-54.2,21.8Q8,47,8,80.6c0,22.2,7.2,40.4,21.8,54.6C44.4,149.2,62.6,156.2,84,156.2Zm151.6.2c21.8,0,40-7.4,54.8-22.2,15-14.8,22.4-32.8,22.4-54S305.4,41,290.4,26c-14.8-15-33-22.4-54.6-22.4S196,11,181,26q-22.2,22.5-22.2,54.6c0,21.4,7.4,39.4,22,54S213.8,156.4,235.6,156.4ZM282,80.2q.3,20.1-13.2,33.6c-9,9-20,13.4-33,13.4s-24-4.4-33-13.4q-13.2-13.5-13.2-33.6c0-13.4,4.4-24.8,13.4-33.8a46.353,46.353,0,0,1,65.6,0C277.6,55.4,282,66.6,282,80.2ZM433.8,97.6l-78-91.4H337V154h29.2V63.4L442.8,154H463V6.2H433.8ZM524.4,154h30V34.8h42.2V6.2H482.2V34.8h42.2Zm198.8,0L667.6,6.2H643.4L587,154h31l11.4-32H681l11,32ZM672.6,95.6H637.8l17.6-49.2Zm130.6,60.6c27.4,0,51.6-12.8,65.2-31.4L848,106.2c-11.4,14.4-25.8,21.6-43,21.6-13.4,0-24.6-4.4-33.6-13.4S758,94.2,758,80.6c0-14,4.6-25.6,13.6-34.6q13.5-13.8,33.6-13.8c16.6,0,30.6,7.2,42.2,21.4l19.8-19.4c-13-18.4-37-30.6-63.6-30.6-21.2,0-39.2,7.2-54.2,21.8Q727.2,47,727.2,80.6c0,22.2,7.2,40.4,21.8,54.6C763.6,149.2,781.8,156.2,803.2,156.2Zm114-2.2h30V34.8h42.2V6.2H875V34.8h42.2Zm154.2,2.4c21.8,0,40-7.4,54.8-22.2,15-14.8,22.4-32.8,22.4-54S1141.2,41,1126.2,26c-14.8-15-33-22.4-54.6-22.4S1031.8,11,1016.8,26q-22.2,22.5-22.2,54.6c0,21.4,7.4,39.4,22,54S1049.6,156.4,1071.4,156.4Zm46.4-76.2q.3,20.1-13.2,33.6c-9,9-20,13.4-33,13.4s-24-4.4-33-13.4q-13.2-13.5-13.2-33.6c0-13.4,4.4-24.8,13.4-33.8a46.353,46.353,0,0,1,65.6,0C1113.4,55.4,1117.8,66.6,1117.8,80.2Zm97,76.2c16.2,0,29.2-4.2,39.2-12.6s15-19.2,15-32.4c0-16.4-8.4-28.6-25.2-36.8q-5.7-2.7-18-7.8l-14.6-6.4c-8-4-12-8.8-12-14.6,0-8.6,7.2-14.2,19-14.2,11,0,24.2,5,32.4,13.8l15.8-21.6c-13.2-13.4-29.4-20-48.6-20-14.8,0-27,4.2-36.4,12.4a38.99,38.99,0,0,0-14,30.8c0,15.6,7.8,27.8,23.4,36.8a154.358,154.358,0,0,0,17.4,8c7.8,3,12.6,4.8,14.6,5.8,9,4.2,13.4,9.4,13.4,15.4,0,9.4-9,15.8-21.2,15.8-15.2,0-29.6-7.2-39.2-20.6l-17,20.6C1171,146.6,1191.8,156.4,1214.8,156.4Z" transform="translate(-7.5 -3.1)" fill="none" stroke="#0292b5" stroke-width="1" opacity="0.592"/>
</svg>
