<svg xmlns="http://www.w3.org/2000/svg" width="1111.4" height="154" viewBox="0 0 1111.4 154">
  <path id="Caminho_1488" data-name="Caminho 1488" d="M16.4,6.2V154H46V103H68.8c18.2,0,31.8-4.6,40.8-13.6,9-9.2,13.6-20.6,13.6-34.4,0-13.6-4.4-25.2-13.2-34.6C101.4,11,88.4,6.2,71,6.2ZM46,76.2V33.6H71.4c13.4,0,21.6,9.2,21.6,21,0,12-8,21.6-23.2,21.6ZM257.2,154,221.4,96.4c20-7.2,30-24.2,30-43.4,0-13.2-4.4-24.2-13-33.2S217.2,6.2,200.8,6.2H144.2V154h29.6V100.2h17.6L222.6,154ZM200.6,33.6c12.8,0,20.4,8.6,20.4,19.8,0,11.4-7.6,20.2-23,20.2H173.8v-40ZM346,156.4c21.8,0,40-7.4,54.8-22.2,15-14.8,22.4-32.8,22.4-54S415.8,41,400.8,26C386,11,367.8,3.6,346.2,3.6S306.4,11,291.4,26q-22.2,22.5-22.2,54.6c0,21.4,7.4,39.4,22,54S324.2,156.4,346,156.4Zm46.4-76.2q.3,20.1-13.2,33.6c-9,9-20,13.4-33,13.4s-24-4.4-33-13.4Q300,100.3,300,80.2c0-13.4,4.4-24.8,13.4-33.8a46.353,46.353,0,0,1,65.6,0C388,55.4,392.4,66.6,392.4,80.2ZM504,154c22.6,0,40.2-6.6,53-19.8,13-13.2,19.4-31.2,19.4-53.8,0-23-6.4-41-19-54.2-12.6-13.4-30-20-52.2-20H447.4V154ZM477,34.6h28.4c12.8,0,22.6,4.4,29.6,13s10.6,19.2,10.6,32.2c0,13.2-3.6,24.2-10.6,32.8s-16.8,13-29.6,13H477ZM599.8,100c0,18.6,5.4,32.6,16.4,42.2s24.8,14.4,41.4,14.4,30.4-4.8,41.2-14.4c11-9.6,16.4-23.6,16.4-42.2V6.2h-30V98c0,19.2-10.8,29.8-27.6,29.8-17.4,0-28-10-28-29.8V6.2H599.8ZM775,154h30V34.8h42.2V6.2H732.8V34.8H775Zm154.2,2.4c21.8,0,40-7.4,54.8-22.2,15-14.8,22.4-32.8,22.4-54S999,41,984,26C969.2,11,951,3.6,929.4,3.6S889.6,11,874.6,26q-22.2,22.5-22.2,54.6c0,21.4,7.4,39.4,22,54S907.4,156.4,929.2,156.4Zm46.4-76.2q.3,20.1-13.2,33.6c-9,9-20,13.4-33,13.4s-24-4.4-33-13.4q-13.2-13.5-13.2-33.6c0-13.4,4.4-24.8,13.4-33.8a46.353,46.353,0,0,1,65.6,0C971.2,55.4,975.6,66.6,975.6,80.2Zm97,76.2c16.2,0,29.2-4.2,39.2-12.6s15-19.2,15-32.4c0-16.4-8.4-28.6-25.2-36.8q-5.7-2.7-18-7.8L1069,60.4c-8-4-12-8.8-12-14.6,0-8.6,7.2-14.2,19-14.2,11,0,24.2,5,32.4,13.8l15.8-21.6c-13.2-13.4-29.4-20-48.6-20-14.8,0-27,4.2-36.4,12.4a38.99,38.99,0,0,0-14,30.8c0,15.6,7.8,27.8,23.4,36.8a154.362,154.362,0,0,0,17.4,8c7.8,3,12.6,4.8,14.6,5.8,9,4.2,13.4,9.4,13.4,15.4,0,9.4-9,15.8-21.2,15.8-15.2,0-29.6-7.2-39.2-20.6l-17,20.6C1028.8,146.6,1049.6,156.4,1072.6,156.4Z" transform="translate(-15.9 -3.1)" fill="none" stroke="#0292b5" stroke-width="1" opacity="0.592"/>
</svg>
