<svg xmlns="http://www.w3.org/2000/svg" width="32.544" height="46.108" viewBox="0 0 32.544 46.108">
  <g id="Grupo_22" data-name="Grupo 22" transform="translate(1.52 1.5)">
    <path id="Caminho_280" data-name="Caminho 280" d="M102.968,214.806a14.739,14.739,0,1,0-29.478,0S72.46,229.228,88.23,243.175C104,229.228,102.968,214.806,102.968,214.806ZM88.23,221.027a6.22,6.22,0,1,1,6.22-6.221A6.222,6.222,0,0,1,88.23,221.027Z" transform="translate(-73.477 -200.067)" fill="none" stroke="#1692b5" stroke-linecap="round" stroke-linejoin="round" stroke-width="3"/>
  </g>
</svg>
