<svg xmlns="http://www.w3.org/2000/svg" width="17.043" height="44.557" viewBox="0 0 17.043 44.557">
  <path id="Caminho_276" data-name="Caminho 276" d="M3909,3903.955l13.992,21.22-13.992,21.7" transform="translate(-3907.74 -3903.129)" fill="none" stroke="#fff" stroke-width="3"/>
</svg>
