<svg xmlns="http://www.w3.org/2000/svg" width="39" height="38.986" viewBox="0 0 39 38.986">
  <path id="phone" d="M37.866,42.361h-.255C8.146,40.667,3.964,15.805,3.379,8.219A4.5,4.5,0,0,1,7.517,3.375h8.262a3,3,0,0,1,2.79,1.889l2.278,5.609a3,3,0,0,1-.66,3.239l-3.194,3.224a14.05,14.05,0,0,0,11.365,11.4l3.254-3.224a3,3,0,0,1,3.254-.614l5.653,2.265a3,3,0,0,1,1.846,2.788v7.917A4.5,4.5,0,0,1,37.866,42.361ZM7.877,6.374a1.5,1.5,0,0,0-1.5,1.5v.12c.69,8.877,5.113,29.869,31.4,31.369a1.5,1.5,0,0,0,1.59-1.409V29.946l-5.653-2.265-4.3,4.273-.72-.091c-13.045-1.634-14.815-14.68-14.815-14.815l-.091-.72,4.258-4.3-2.25-5.651Z" transform="translate(-3.364 -3.375)" fill="#0292b5"/>
</svg>
