<svg xmlns="http://www.w3.org/2000/svg" width="64.242" height="78.047" viewBox="0 0 64.242 78.047">
  <g id="Grupo_35" data-name="Grupo 35" transform="translate(-1225 -5813)">
    <path id="Caminho_284" data-name="Caminho 284" d="M38.94,350.272h-.027L37.3,344.03H33.713v9.36h2.294v-7.108h.027L38,353.391h1.862l1.965-7.108h.027v7.108h2.29v-9.36H40.55l-1.611,6.242m9.327-.759h4.588v-1.894H48.267v-1.638h5.019V344.03H45.831v9.36h7.586v-2.1h-5.15ZM28.8,348.384H27.16v-2.4H28.8a1.154,1.154,0,0,1,1.311,1.236C30.11,348.07,29.563,348.384,28.8,348.384Zm.37-4.354H24.724v9.36H27.16v-3.118h2.009c2.055,0,3.377-.91,3.377-3.224C32.545,344.833,30.912,344.03,29.169,344.03Zm33.028,1.2h.928l2.205-2.051h-1.7Zm14.5,3.8a2.1,2.1,0,0,1,.69-1.185,2.029,2.029,0,0,1,1.3-.389,2.055,2.055,0,0,1,1.346.4,1.739,1.739,0,0,1,.59,1.173Zm1.957-2.974a3.64,3.64,0,0,0-2.71,1.092,4.267,4.267,0,0,0-.031,5.571,3.639,3.639,0,0,0,2.742,1.054,4.065,4.065,0,0,0,2.1-.534,4.233,4.233,0,0,0,1.49-1.612l-1.381-.771a2.754,2.754,0,0,1-.925,1.079,2.443,2.443,0,0,1-1.317.332,1.882,1.882,0,0,1-1.431-.564,2.426,2.426,0,0,1-.6-1.575h5.728v-.3a3.8,3.8,0,0,0-.969-2.773A3.6,3.6,0,0,0,78.659,346.063Zm9.467.094a2.776,2.776,0,0,0-.684-.094,1.693,1.693,0,0,0-1.073.345,2.267,2.267,0,0,0-.7,1.054v-1.148H84.029v7.164h1.644v-3.143a5.007,5.007,0,0,1,.351-2.2,1.235,1.235,0,0,1,1.17-.652,1.918,1.918,0,0,1,.549.075,1.5,1.5,0,0,1,.458.22l.583-1.38A3.192,3.192,0,0,0,88.126,346.157Zm-17.108,5.5a1.8,1.8,0,0,1-1.443.665,1.763,1.763,0,0,1-1.446-.615,3.257,3.257,0,0,1,.022-3.538,1.989,1.989,0,0,1,2.9-.025,2.637,2.637,0,0,1,.52,1.738A2.733,2.733,0,0,1,71.018,351.653Zm.5-4.166a2.183,2.183,0,0,0-.91-1.054,3.123,3.123,0,0,0-3.82.69,4.129,4.129,0,0,0-.891,2.766,4.31,4.31,0,0,0,.872,2.848,2.964,2.964,0,0,0,2.391,1.042,2.75,2.75,0,0,0,2.359-1.224v.923h1.64V341.772H71.52Zm-13.128,5.991h1.641V341.772H58.392Zm4.056,0h1.644V346.32H62.448Z" transform="translate(1200.276 5537.268)" fill="#fff"/>
    <path id="Caminho_285" data-name="Caminho 285" d="M88.966,89.306a5.976,5.976,0,0,1-5.972,5.979H30.7a5.978,5.978,0,0,1-5.976-5.979V37.018A5.979,5.979,0,0,1,30.7,31.039H82.994a5.976,5.976,0,0,1,5.972,5.979V89.306" transform="translate(1200.276 5781.961)" fill="#fff"/>
    <path id="Caminho_286" data-name="Caminho 286" d="M88.674,44.471c-4.012,7.736-7.726,15.631-11.7,23.385-2.6,5.072-5.253,10.127-8.063,15.089-1.14,2.014-2.309,4.015-3.55,5.966-.494.778-1,1.537-1.527,2.284-.215.307-.434.6-.659.891.875-1.142.063-.081-.185.195-.17.2-.347.389-.535.577-.077.076-.164.151-.248.226-.442.383.83-.6.37-.282a19.005,19.005,0,0,1-2.359,1.361c-.2.1-.405.194-.614.282-.712.326.69-.276-.035.013-.469.188-.955.351-1.441.5-.4.119-.812.22-1.222.314-.273.063-1.65.244-.5.107a9.617,9.617,0,0,1-1.122.075c-.328.006-1.735-.157-.5.025a5.8,5.8,0,0,1-.913-.214c-.251-.081-.743-.345.243.113a2.938,2.938,0,0,1-.37-.207c-.494-.295.664.558.231.195a2.88,2.88,0,0,1-.285-.289c.664.734.363.489.2.232-.408-.659.224.659.055.15a3.431,3.431,0,0,1-.108-.439c.193.972.074.615.058.326a3.253,3.253,0,0,1,.007-.439c.038-.6-.19,1.073-.046.376a3.589,3.589,0,0,1,.135-.477c.193-.546-.45.954-.135.332.068-.132.147-.251.224-.37.384-.6-.582.7-.206.251a4.982,4.982,0,0,1,.375-.4,4.56,4.56,0,0,1,.357-.32c.475-.395-.823.6-.2.157a10.135,10.135,0,0,1,1.013-.615c.174-.088.348-.176.525-.257.088-.044.18-.082.269-.125.455-.2-.872.364-.409.169.436-.176.879-.326,1.327-.471a26.348,26.348,0,0,1,2.92-.74c.518-.1,1.038-.188,1.557-.27l.4-.056c.579-.088-.917.119-.336.044.325-.044.651-.081.975-.113a62.655,62.655,0,0,1,7.52-.333c2.663.031,5.326.2,7.973.489l.954.113c.288.038,1.48.195.223.025.674.094,1.346.194,2.02.3q1.874.3,3.73.715c1.468.32,2.924.7,4.357,1.154.656.207,1.3.433,1.942.671.307.119.605.238.9.364-1.255-.52-.038-.006.27.138.514.238,1.016.514,1.512.8.225.132.445.276.664.414.276.188,1.085.828.007-.019a7.68,7.68,0,0,1,.972.91c.577.64-.5-.715-.094-.132a4.145,4.145,0,0,1,.326.559,3.317,3.317,0,0,0,4.517,1.179,3.363,3.363,0,0,0,1.186-4.517,10.645,10.645,0,0,0-3.99-3.94,27.817,27.817,0,0,0-5.96-2.635A68.014,68.014,0,0,0,76.235,85.4a70.452,70.452,0,0,0-15.972.326,26.92,26.92,0,0,0-5.913,1.43,12.533,12.533,0,0,0-5.092,3.137A7.428,7.428,0,0,0,47.5,96.929c.8,4.027,5.315,5.433,8.9,5.056a19.745,19.745,0,0,0,10.469-4.235,18.484,18.484,0,0,0,2.944-3.639,130.351,130.351,0,0,0,7.141-12.077C79.75,76.9,82.429,71.7,85.064,66.485c3.139-6.208,6.1-12.509,9.31-18.682a3.3,3.3,0,0,0-5.7-3.332" transform="translate(1182.472 5772.657)" fill="#1d1d1d"/>
  </g>
</svg>
